{
    "BorgBackup": {
        "containers": {
            "borgbackup": {
                "image": "sebtombs/borgbackup-centos",
                "launch_order": 1,
                "opts": [
                    [
                        "-v",
                        "/mnt2:/shares:ro"
                    ],
                    [
                        "-v",
                        "/root/.ssh:/root/.ssh:ro"
                    ]
                ],
                "ports": {
                    "5000": {
                        "description": "Port to use for BorgWeb. Suggested default: 5000",
                        "host_default": 5000,
                        "label": "WebUI port",
                        "protocol": "tcp",
                        "ui": true
                    }
                },
                "volumes": {
                    "/config": {
                        "description": "Please choose a Share for the Borg Backup configuration. Eg: create a Share called borg-config for this purpose alone.",
                        "label": "Config Storage"
                    }
                },
                "environment": {
                    "BORG_UID": {
                        "description": "Please enter a valid UID of an existing user with permission to shares to run Borg as.",
                        "label": "UID to run Borg Backup as - probably not needed",
                        "index": 1
                    },
                    "BORG_GID": {
                        "description": "Please enter a valid GID of an existing user with permission to shares to run Borg as.",
                        "label": "GID to run Borg Backup as - probably not needed",
                        "index": 2
                    },
                    "BORG_REPO": {
                        "description": "Please enter the Borg remote repository url.",
                        "label": "Borg destination",
                        "index": 3
                    },
                    "BORG_RATE": {
                        "description": "Please enter the maximum allowed transfer rate in bytes/second (or leave blank if not required).",
                        "label": "Borg rate limit",
                        "index": 4
                    },
                    "BORG_RSH": {
                        "description": "Please enter the path and arguments for the alternative Borg shell command, e.g. '/root/pv-wrapper.sh ssh ' for rate limiting",
                        "label": "Borg secure shell command",
                        "index": 5
                    },
                    "BORG_PATHS": {
                        "description": "Please enter a space-separated list of paths to be backed up. Note that they must take the form /shares/<path>.",
                        "label": "List of paths for Borg to back-up",
                        "index": 6
                    },
                    "BORG_PASSPHRASE": {
                        "description": "Please provide a (strong) passphrase with which to encrypt your data. If this is later forgotten then you will have no access to your data, so keep it safe please!",
                        "label": "Passphrase used for encrypting data",
                        "index": 7
                    },
                    "BORG_DISPLAY_PASSPHRASE": {
                        "description": "This must be set to N. We don't know how to do this without asking you at the moment!",
                        "label": "This must be set to N. We don't know how to do this without asking you at the moment!",
                        "index": 8
                    }
                }
            }
        },
        "description": "Borg Backup",
        "more_info": "<h4>More work needed here</h4><p>Need to pass configuration to Borg Backup.</p>",
        "ui": {
            "slug": ""
        },
        "volume_add_support": true,
        "website": "https://github.com/borgbackup/",
        "version": "1.0"
    }
}
